id,name,model_id:id,group_id:id,perm_read,perm_write,perm_create,perm_unlink
access_op_admission_register_receptionist,name_op_admission_register_receptionist,model_op_admission_register,openeducat_core.group_op_receptionist,1,0,0,0
access_op_admission_register_it_admin,name_op_admission_register_it_admin,model_op_admission_register,openeducat_core.group_op_it_admin,1,0,0,0
access_op_admission_register_registrar,name_op_admission_register_registrar,model_op_admission_register,openeducat_core.group_op_registrar,1,1,1,1
access_op_admission_register_assistant_registrar_three,name_op_admission_register_assistant_registrar_three,model_op_admission_register,openeducat_core.group_op_assistant_registrar_three,1,1,1,1
access_op_admission_register_principal,name_op_admission_register_principal,model_op_admission_register,openeducat_core.group_op_principal,1,0,0,0

access_op_admission_receptionist,name_op_admission_receptionist,model_op_admission,openeducat_core.group_op_receptionist,1,1,1,0
access_op_admission_registrar,name_op_admission_registrar,model_op_admission,openeducat_core.group_op_registrar,1,1,1,1
access_op_admission_assistant_registrar_three,name_op_admission_assistant_registrar_three,model_op_admission,openeducat_core.group_op_assistant_registrar_three,1,1,1,1
access_op_admission_principal,name_op_admission_principal,model_op_admission,openeducat_core.group_op_principal,1,0,0,0

access_op_student_fees_details_receptionist,name_op_student_fees_details_receptionist,openeducat_fees.model_op_student_fees_details,openeducat_core.group_op_receptionist,1,0,0,0
access_op_student_fees_details_registrar,name_op_student_fees_details_registrar,openeducat_fees.model_op_student_fees_details,openeducat_core.group_op_registrar,1,1,1,1
access_op_student_fees_details_assistant_registrar_three,name_op_student_fees_details_assistant_registrar_three,openeducat_fees.model_op_student_fees_details,openeducat_core.group_op_assistant_registrar_three,1,1,1,0
access_op_admission_register_principal,name_op_admission_register_principal,openeducat_fees.model_op_student_fees_details,openeducat_core.group_op_principal,1,0,0,0

access_op_student_registration_results_registrar,name_op_student_registration_results_registrar,model_op_student_registration_results,openeducat_core.group_op_registrar,1,1,1,1
access_op_student_registration_results_assistant_registrar_three,name_op_student_registration_results_assistant_registrar_three,model_op_student_registration_results,openeducat_core.group_op_assistant_registrar_three,1,1,1,0
access_op_student_registration_results_group_op_assistant_registrar_one,name_op_student_registration_results_group_op_assistant_registrar_one,model_op_student_registration_results,openeducat_core.group_op_assistant_registrar_one,1,1,1,0
access_op_student_registration_results_principal,name_op_student_registration_results_principal,model_op_student_registration_results,openeducat_core.group_op_principal,1,0,0,0

access_op_student_registration_registrar,name_op_student_registration_registrar,model_op_student_registration,openeducat_core.group_op_registrar,1,1,1,1
access_op_student_registration_assistant_registrar_three,name_op_student_registration_assistant_registrar_three,model_op_student_registration,openeducat_core.group_op_assistant_registrar_three,1,1,1,1
access_op_student_registration_principal,name_op_student_registration_principal,model_op_student_registration,openeducat_core.group_op_principal,1,0,0,0

access_student_mass_enroll_wizard,access_student_mass_enroll_wizard,model_student_mass_enroll_wizard,openeducat_core.group_op_registrar,1,1,1,1
access_student_mass_enroll_wizard_assistant_registrar_three,access_student_mass_enroll_wizard_assistant_registrar_three,model_student_mass_enroll_wizard,openeducat_core.group_op_assistant_registrar_three,1,1,1,1
access_student_mass_enroll_wizard_principal,access_student_mass_enroll_wizard_principal,model_student_mass_enroll_wizard,openeducat_core.group_op_principal,1,0,0,0

access_enrollment_detail_report_wizard,access_enrollment_detail_report_wizard,model_enrollment_detail_report_wizard,openeducat_core.group_op_registrar,1,1,1,1
access_enrollment_detail_report_wizard_assistant_registrar_three,access_enrollment_detail_report_wizard_assistant_registrar_three,model_enrollment_detail_report_wizard,openeducat_core.group_op_assistant_registrar_three,1,1,1,1
access_enrollment_detail_report_wizard_principal,access_enrollment_detail_report_wizard_principal,model_enrollment_detail_report_wizard,openeducat_core.group_op_principal,1,0,0,0

access_enrollment_detail_report_wizard_group_op_receptionist,access_enrollment_detail_report_wizard_group_op_receptionist,model_enrollment_detail_report_wizard,openeducat_core.group_op_receptionist,1,1,1,1
access_enrollment_detail_report_wizard_group_op_principal,access_enrollment_detail_report_wizard_group_op_principal,model_enrollment_detail_report_wizard,openeducat_core.group_op_principal,1,0,0,0

access_report_openeducat_admission_report_enrollment,access_report_openeducat_admission_report_enrollment,model_report_openeducat_admission_report_enrollment,openeducat_core.group_op_registrar,1,1,1,1
access_report_openeducat_admission_report_enrollment_assistant_registrar_three,access_report_openeducat_admission_report_enrollment_assistant_registrar_three,model_report_openeducat_admission_report_enrollment,openeducat_core.group_op_assistant_registrar_three,1,1,1,1
access_report_openeducat_admission_report_enrollment_group_op_receptionist,access_report_openeducat_admission_report_enrollment_group_op_receptionist,model_report_openeducat_admission_report_enrollment,openeducat_core.group_op_receptionist,1,1,1,1
access_report_openeducat_admission_report_enrollment_group_op_principal,access_report_openeducat_admission_report_enrollment_group_op_principal,model_report_openeducat_admission_report_enrollment,openeducat_core.group_op_principal,1,0,0,0

access_auto_complete_student,access_auto_complete_student,model_auto_complete_student,openeducat_core.group_op_registrar,1,1,1,1
access_auto_complete_student_assistant_registrar_three,access_auto_complete_student_assistant_registrar_three,model_auto_complete_student,openeducat_core.group_op_assistant_registrar_three,1,1,1,1
access_auto_complete_student_principal,access_auto_complete_student_principal,model_auto_complete_student,openeducat_core.group_op_principal,1,0,0,0