id,name,model_id:id,group_id:id,perm_read,perm_write,perm_create,perm_unlink
access_op_assignment_type_student,access_op_assignment_type_student,model_op_assignment_type,openeducat_core.group_op_student,1,0,0,0
access_op_assignment_type_faculty,access_op_assignment_type_faculty,model_op_assignment_type,openeducat_core.group_op_lecturer,1,1,1,1
access_op_assignment_sub_line_student,op_assignment_sub_line_student,model_op_assignment_sub_line,openeducat_core.group_op_student,1,1,1,1

access_op_assignment_student,op_assignment_student,model_op_assignment,openeducat_core.group_op_student,1,0,0,0
access_op_assignment_faculty,op_assignment_faculty,model_op_assignment,openeducat_core.group_op_lecturer,1,1,1,1
access_op_assignment_registrar,name_op_assignment_registrar,model_op_assignment,openeducat_core.group_op_registrar,1,1,1,1
access_op_assignment_principal,name_op_assignment_principal,model_op_assignment,openeducat_core.group_op_principal,1,0,0,0