id,name,model_id:id,group_id:id,perm_read,perm_write,perm_create,perm_unlink
access_op_exam_attendees_faculty,op_exam_attendees_faculty,model_op_exam_attendees,openeducat_core.group_op_lecturer,1,1,1,0
access_op_exam_attendees_registrar,op_exam_attendees_registrar,model_op_exam_attendees,openeducat_core.group_op_registrar,1,1,1,1
access_op_exam_attendees_assistant_registrar_one,op_exam_attendees_assistant_registrar_one,model_op_exam_attendees,openeducat_core.group_op_assistant_registrar_one,1,1,1,1
access_op_exam_attendees_principal,op_exam_attendees_principal,model_op_exam_attendees,openeducat_core.group_op_principal,1,0,0,0


access_op_exam_room_faculty,op_exam_room_faculty,model_op_exam_room,openeducat_core.group_op_lecturer,1,0,0,0
access_op_exam_room_registrar,op_exam_room_registrar,model_op_exam_room,openeducat_core.group_op_registrar,1,1,1,1
access_op_exam_room_assistant_registrar_one,op_exam_room_assistant_registrar_one,model_op_exam_room,openeducat_core.group_op_assistant_registrar_one,1,1,1,1
access_op_exam_room_it_admin,op_exam_room_it_admin,model_op_exam_room,openeducat_core.group_op_it_admin,1,1,1,1
access_op_exam_room_principal,op_exam_room_principal,model_op_exam_room,openeducat_core.group_op_principal,1,0,0,0

access_op_exam_session_faculty,op_exam_session_faculty,model_op_exam_session,openeducat_core.group_op_lecturer,1,1,1,0
access_op_exam_session_registrar,op_exam_session_registrar,model_op_exam_session,openeducat_core.group_op_registrar,1,1,1,1
access_op_exam_session_assistant_registrar_one,op_exam_session_assistant_registrar_one,model_op_exam_session,openeducat_core.group_op_assistant_registrar_one,1,1,1,1
access_op_exam_session_principal,op_exam_session_principal,model_op_exam_session,openeducat_core.group_op_principal,1,0,0,0

access_op_exam_template_it_admin,op_exam_template_it_admin,model_op_exam_template,openeducat_core.group_op_it_admin,1,1,1,1
access_op_exam_template_registrar,op_exam_template_registrar,model_op_exam_template,openeducat_core.group_op_registrar,1,1,0,0
access_op_exam_template_assistant_registrar_one,op_exam_template_assistant_registrar_one,model_op_exam_template,openeducat_core.group_op_assistant_registrar_one,1,1,1,1
access_op_exam_template_principal,op_exam_template_principal,model_op_exam_template,openeducat_core.group_op_principal,1,0,0,0


access_op_exam_type_faculty,op_exam_type_faculty,model_op_exam_type,openeducat_core.group_op_lecturer,1,0,0,0
access_op_exam_type_registrar,op_exam_type_registrar,model_op_exam_type,openeducat_core.group_op_registrar,1,1,0,0
access_op_exam_type_assistant_registrar_one,op_exam_type_assistant_registrar_one,model_op_exam_type,openeducat_core.group_op_assistant_registrar_one,1,1,1,1
access_op_exam_type_it_admin,op_exam_type_it_admin,model_op_exam_type,openeducat_core.group_op_it_admin,1,1,1,1
access_op_exam_type_principal,op_exam_type_principal,model_op_exam_type,openeducat_core.group_op_principal,1,0,0,0

access_op_exam_faculty,op_exam_faculty,model_op_exam,openeducat_core.group_op_lecturer,1,1,1,0
access_op_exam_registrar,op_exam_registrar,model_op_exam,openeducat_core.group_op_registrar,1,1,1,1
access_op_exam_assistant_registrar_one,op_exam_assistant_registrar_one,model_op_exam,openeducat_core.group_op_assistant_registrar_one,1,1,1,1
access_op_exam_principal,op_exam_principal,model_op_exam,openeducat_core.group_op_principal,1,0,0,0

access_op_marksheet_register_faculty,op_marksheet_register_faculty,model_op_marksheet_register,openeducat_core.group_op_lecturer,1,1,1,0
access_op_marksheet_register_registrar,op_marksheet_register_registrar,model_op_marksheet_register,openeducat_core.group_op_registrar,1,1,1,1
access_op_marksheet_register_assistant_registrar_one,op_marksheet_register_assistant_registrar_one,model_op_marksheet_register,openeducat_core.group_op_assistant_registrar_one,1,1,1,1
access_op_marksheet_register_principal,op_marksheet_register_principal,model_op_marksheet_register,openeducat_core.group_op_principal,1,0,0,0

access_op_marksheet_line_faculty,op_marksheet_line_faculty,model_op_marksheet_line,openeducat_core.group_op_lecturer,1,1,1,0
access_op_marksheet_line_registrar,op_marksheet_line_registrar,model_op_marksheet_line,openeducat_core.group_op_registrar,1,1,1,1
access_op_marksheet_line_assistant_registrar_one,op_marksheet_line_assistant_registrar_one,model_op_marksheet_line,openeducat_core.group_op_assistant_registrar_one,1,1,1,1
access_op_marksheet_line_principal,op_marksheet_line_principal,model_op_marksheet_line,openeducat_core.group_op_principal,1,0,0,0

access_op_result_line_faculty,op_result_line_faculty,model_op_result_line,openeducat_core.group_op_lecturer,1,1,1,0
access_op_result_line_registrar,op_result_line_registrar,model_op_result_line,openeducat_core.group_op_registrar,1,1,1,1
access_op_result_line_assistant_registrar_one,op_result_line_assistant_registrar_one,model_op_result_line,openeducat_core.group_op_assistant_registrar_one,1,1,1,1
access_op_result_line_principal,op_result_line_principal,model_op_result_line,openeducat_core.group_op_principal,1,0,0,0


access_op_result_template_faculty,name_op_result_template_faculty,model_op_result_template,openeducat_core.group_op_lecturer,1,1,1,0
access_op_result_template_registrar,name_op_result_template_registrar,model_op_result_template,openeducat_core.group_op_registrar,1,1,1,1
access_op_result_template_assistant_registrar_one,name_op_result_template_assistant_registrar_one,model_op_result_template,openeducat_core.group_op_assistant_registrar_one,1,1,1,1
access_op_result_template_principal,name_op_result_template_principal,model_op_result_template,openeducat_core.group_op_principal,1,0,0,0

access_op_marksheet_line_student,op_marksheet_line_student,model_op_marksheet_line,openeducat_core.group_op_student,1,0,0,0
access_op_marksheet_line_principal,op_marksheet_line_principal,model_op_marksheet_line,openeducat_core.group_op_principal,1,0,0,0

access_op_exam_student,op_exam_student,model_op_exam,openeducat_core.group_op_student,1,0,0,0
access_op_exam_principal,op_exam_principal,model_op_exam,openeducat_core.group_op_principal,1,0,0,0

access_exam_testimonial_report_wizard,access_exam_testimonial_report_wizard,model_exam_testimonial_report_wizard,openeducat_core.group_op_registrar,1,1,1,1
access_exam_testimonial_report_wizard_assistant_registrar_one,access_exam_testimonial_report_wizard_assistant_registrar_one,model_exam_testimonial_report_wizard,openeducat_core.group_op_assistant_registrar_one,1,1,1,1
access_exam_testimonial_report_wizard_principal,access_exam_testimonial_report_wizard_principal,model_exam_testimonial_report_wizard,openeducat_core.group_op_principal,1,1,1,1

access_report_openeducat_exam_report_testimonial,access_report_openeducat_exam_report_testimonial,model_report_openeducat_exam_report_testimonial,openeducat_core.group_op_registrar,1,1,1,1
access_report_openeducat_exam_report_testimonial_assistant_registrar_one,access_report_openeducat_exam_report_testimonial_assistant_registrar_one,model_report_openeducat_exam_report_testimonial,openeducat_core.group_op_assistant_registrar_one,1,1,1,1
access_report_openeducat_exam_report_testimonial_principal,access_report_openeducat_exam_report_testimonial_principal,model_report_openeducat_exam_report_testimonial,openeducat_core.group_op_principal,1,1,1,1

access_exam_transcript_report_wizard,access_exam_transcript_report_wizard,model_exam_transcript_report_wizard,openeducat_core.group_op_registrar,1,1,1,1
access_exam_transcript_report_wizard_assistant_registrar_one,access_exam_transcript_report_wizard_assistant_registrar_one,model_exam_transcript_report_wizard,openeducat_core.group_op_assistant_registrar_one,1,1,1,1
access_exam_transcript_report_wizard_principal,access_exam_transcript_report_wizard_principal,model_exam_transcript_report_wizard,openeducat_core.group_op_principal,1,1,1,1

access_report_openeducat_exam_report_transcript,access_report_openeducat_exam_report_transcript,model_report_openeducat_exam_report_transcript,openeducat_core.group_op_registrar,1,1,1,1
access_report_openeducat_exam_report_transcript_assistant_registrar_one,access_report_openeducat_exam_report_transcript_assistant_registrar_one,model_report_openeducat_exam_report_transcript,openeducat_core.group_op_assistant_registrar_one,1,1,1,1
access_report_openeducat_exam_report_transcript_principal,access_report_openeducat_exam_report_transcript_principal,model_report_openeducat_exam_report_transcript,openeducat_core.group_op_principal,1,1,1,1